[
  {
    "id": "123",
    "name": "Updated Product Test 123",
    "price_nett": 1230,
    "description": ""
  },
  {
    "id": "234",
    "name": "Product Testing 234",
    "price_nett": 2340,
    "description": ""
  },
  {
    "id": "345",
    "name": "Product Example Test 345",
    "price_nett": 3450,
    "description": ""
  }
]